-- Merging decision tree log ---
manifest
ADDED from /home/elvira/Downloads/flutter_linux_v1.12.13+hotfix.5-stable/flutter/.pub-cache/hosted/pub.dartlang.org/shared_preferences_web-0.1.2+3/android/src/main/AndroidManifest.xml:1:1-3:12
INJECTED from /home/elvira/Downloads/flutter_linux_v1.12.13+hotfix.5-stable/flutter/.pub-cache/hosted/pub.dartlang.org/shared_preferences_web-0.1.2+3/android/src/main/AndroidManifest.xml:1:1-3:12
INJECTED from /home/elvira/Downloads/flutter_linux_v1.12.13+hotfix.5-stable/flutter/.pub-cache/hosted/pub.dartlang.org/shared_preferences_web-0.1.2+3/android/src/main/AndroidManifest.xml:1:1-3:12
	package
		ADDED from /home/elvira/Downloads/flutter_linux_v1.12.13+hotfix.5-stable/flutter/.pub-cache/hosted/pub.dartlang.org/shared_preferences_web-0.1.2+3/android/src/main/AndroidManifest.xml:2:3-54
		INJECTED from /home/elvira/Downloads/flutter_linux_v1.12.13+hotfix.5-stable/flutter/.pub-cache/hosted/pub.dartlang.org/shared_preferences_web-0.1.2+3/android/src/main/AndroidManifest.xml
		INJECTED from /home/elvira/Downloads/flutter_linux_v1.12.13+hotfix.5-stable/flutter/.pub-cache/hosted/pub.dartlang.org/shared_preferences_web-0.1.2+3/android/src/main/AndroidManifest.xml
	xmlns:android
		ADDED from /home/elvira/Downloads/flutter_linux_v1.12.13+hotfix.5-stable/flutter/.pub-cache/hosted/pub.dartlang.org/shared_preferences_web-0.1.2+3/android/src/main/AndroidManifest.xml:1:11-69
uses-sdk
INJECTED from /home/elvira/Downloads/flutter_linux_v1.12.13+hotfix.5-stable/flutter/.pub-cache/hosted/pub.dartlang.org/shared_preferences_web-0.1.2+3/android/src/main/AndroidManifest.xml reason: use-sdk injection requested
INJECTED from /home/elvira/Downloads/flutter_linux_v1.12.13+hotfix.5-stable/flutter/.pub-cache/hosted/pub.dartlang.org/shared_preferences_web-0.1.2+3/android/src/main/AndroidManifest.xml
INJECTED from /home/elvira/Downloads/flutter_linux_v1.12.13+hotfix.5-stable/flutter/.pub-cache/hosted/pub.dartlang.org/shared_preferences_web-0.1.2+3/android/src/main/AndroidManifest.xml
	android:minSdkVersion
		INJECTED from /home/elvira/Downloads/flutter_linux_v1.12.13+hotfix.5-stable/flutter/.pub-cache/hosted/pub.dartlang.org/shared_preferences_web-0.1.2+3/android/src/main/AndroidManifest.xml
		ADDED from /home/elvira/Downloads/flutter_linux_v1.12.13+hotfix.5-stable/flutter/.pub-cache/hosted/pub.dartlang.org/shared_preferences_web-0.1.2+3/android/src/main/AndroidManifest.xml
		INJECTED from /home/elvira/Downloads/flutter_linux_v1.12.13+hotfix.5-stable/flutter/.pub-cache/hosted/pub.dartlang.org/shared_preferences_web-0.1.2+3/android/src/main/AndroidManifest.xml
